alice data review
…
## Warning in mean.default("Adults with Asthma in the Past 12 Months", na.rm =
## TRUE): argument is not numeric or logical: returning NA

## Warning in mean.default("Adults with Asthma in the Past 12 Months", na.rm =
## TRUE): argument is not numeric or logical: returning NA

## Warning in mean.default("Adults with Asthma in the Past 12 Months", na.rm =
## TRUE): argument is not numeric or logical: returning NA

## Warning in mean.default("Adults with Asthma in the Past 12 Months", na.rm =
## TRUE): argument is not numeric or logical: returning NA

## # A tibble: 748 x 3
## # Groups:   geo_entity_id [42]
##    geo_entity_id year      n
##            <dbl> <fct> <dbl>
##  1           101 1998     NA
##  2           101 1999     NA
##  3           101 2000     NA
##  4           101 2001     NA
##  5           101 2002     NA
##  6           101 2003     NA
##  7           101 2004     NA
##  8           101 2005     NA
##  9           101 2006     NA
## 10           101 2007     NA
## # … with 738 more rows
…
all_data %>%  
  group_by(geo_join_id, time_period) %>% 
  summarize(n = n())

## # A tibble: 1,208 x 3
## # Groups:   geo_join_id [41]
##    geo_join_id time_period     n
##    <fct>       <fct>       <int>
##  1 101         1998            1
##  2 101         1999            1
##  3 101         2000            1
##  4 101         2001            1
##  5 101         2002            1
##  6 101         2003            2
##  7 101         2004            2
##  8 101         2005            6
##  9 101         2005-2007       7
## 10 101         2006            7
## # … with 1,198 more rows
