Kelly
…
tidy_asthma 

## # A tibble: 188 x 9
##    geo_type_name geo_join_id time_period geo_place_name homes_with_cock…
##    <chr>               <dbl>       <dbl> <chr>                     <dbl>
##  1 Borough                 1        2011 Bronx                      37.7
##  2 Borough                 2        2011 Brooklyn                   26.6
##  3 Borough                 3        2011 Manhattan                  20.6
##  4 Borough                 4        2011 Queens                     19.7
##  5 Borough                 5        2011 Staten Island               5.2
##  6 Borough                 1        2014 Bronx                      35  
##  7 Borough                 2        2014 Brooklyn                   26.4
##  8 Borough                 3        2014 Manhattan                  19.7
##  9 Borough                 4        2014 Queens                     19.3
## 10 Borough                 5        2014 Staten Island               4.8
## # … with 178 more rows, and 4 more variables: poverty <dbl>,
## #   public_school_children_5_14_yrs_old_with_asthma <dbl>,
## #   public_school_children_5_14_yrs_old_with_persistent_asthma <dbl>,
## #   asthma_hospitalizations_children_5_to_17_yrs_old <dbl>
…
tidy_asthma 

## # A tibble: 188 x 9
##    geo_type_name geo_join_id time_period geo_place_name homes_with_cock…
##    <chr>               <dbl>       <dbl> <chr>                     <dbl>
##  1 Borough                 1        2011 Bronx                      37.7
##  2 Borough                 2        2011 Brooklyn                   26.6
##  3 Borough                 3        2011 Manhattan                  20.6
##  4 Borough                 4        2011 Queens                     19.7
##  5 Borough                 5        2011 Staten Island               5.2
##  6 Borough                 1        2014 Bronx                      35  
##  7 Borough                 2        2014 Brooklyn                   26.4
##  8 Borough                 3        2014 Manhattan                  19.7
##  9 Borough                 4        2014 Queens                     19.3
## 10 Borough                 5        2014 Staten Island               4.8
## # … with 178 more rows, and 4 more variables: poverty <dbl>,
## #   public_school_children_5_14_yrs_old_with_asthma <dbl>,
## #   public_school_children_5_14_yrs_old_with_persistent_asthma <dbl>,
## #   asthma_hospitalizations_children_5_to_17_yrs_old <dbl>
…
