lorraine
…
Trying Jiayi’s suggestion to get rid of stacking:

df1 = 
  all_data  %>% 
  select(geo_join_id, time_period, measure, indicator_id, homes_with_cockroaches) %>% 
  drop_na()

df2 = 
all_data %>% 
  select(geo_join_id, time_period, measure, indicator_id, poverty) %>% 
  drop_na()
df2

## # A tibble: 42 x 5
##    geo_join_id time_period measure indicator_id poverty
##    <fct>       <fct>       <fct>          <int>   <dbl>
##  1 101         2011        Percent          221    16.1
##  2 102         2011        Percent          221    15.4
##  3 103         2011        Percent          221    32.9
##  4 104         2011        Percent          221    23.2
##  5 105         2011        Percent          221    41.0
##  6 106         2011        Percent          221    39.7
##  7 107         2011        Percent          221    43.0
##  8 201         2011        Percent          221    26.5
##  9 202         2011        Percent          221    16.4
## 10 203         2011        Percent          221    27.2
## # … with 32 more rows

df3 = 
  all_data %>% 
  select(geo_join_id, time_period, measure, indicator_id, public_school_children_5_14_yrs_old_with_asthma) %>% 
  drop_na()
df3

## # A tibble: 168 x 5
##    geo_join_id time_period measure indicator_id public_school_children_5_1…
##    <fct>       <fct>       <fct>          <int>                       <dbl>
##  1 101         2011        Rate             696                        64.5
##  2 102         2011        Rate             696                        69.2
##  3 103         2011        Rate             696                        75.5
##  4 104         2011        Rate             696                        73.3
##  5 105         2011        Rate             696                        77.1
##  6 106         2011        Rate             696                        71.4
##  7 107         2011        Rate             696                        93  
##  8 201         2011        Rate             696                        31.7
##  9 202         2011        Rate             696                        49.3
## 10 203         2011        Rate             696                        79.7
## # … with 158 more rows

df4 = 
  all_data %>% 
  select(geo_join_id, time_period, measure, indicator_id, public_school_children_5_14_yrs_old_with_persistent_asthma) %>% 
  drop_na()
df4

## # A tibble: 168 x 5
##    geo_join_id time_period measure indicator_id public_school_children_5_1…
##    <fct>       <fct>       <fct>          <int>                       <dbl>
##  1 101         2011        Rate             784                        17.1
##  2 102         2011        Rate             784                        19.6
##  3 103         2011        Rate             784                        24.3
##  4 104         2011        Rate             784                        22.7
##  5 105         2011        Rate             784                        25.1
##  6 106         2011        Rate             784                        24.6
##  7 107         2011        Rate             784                        34.8
##  8 201         2011        Rate             784                         9.6
##  9 202         2011        Rate             784                        13.5
## 10 203         2011        Rate             784                        23.2
## # … with 158 more rows
…
